(kicad_sch (version 20211123) (generator eeschema)

  (uuid eda3c306-8772-45d1-9931-ec9bd0c8f47a)

  (paper "A4")

  (lib_symbols
    (symbol "Device:C_Small" (pin_numbers hide) (pin_names (offset 0.254) hide) (in_bom yes) (on_board yes)
      (property "Reference" "C?" (id 0) (at 2.54 1.2638 0)
        (effects (font (size 1.27 1.27)) (justify left))
      )
      (property "Value" "1u" (id 1) (at 2.54 -1.2762 0)
        (effects (font (size 1.27 1.27)) (justify left) hide)
      )
      (property "Footprint" "" (id 2) (at 0 0 0)
        (effects (font (size 1.27 1.27)) hide)
      )
      (property "Datasheet" "~" (id 3) (at 0 0 0)
        (effects (font (size 1.27 1.27)) hide)
      )
      (property "ki_keywords" "capacitor cap" (id 4) (at 0 0 0)
        (effects (font (size 1.27 1.27)) hide)
      )
      (property "ki_description" "Unpolarized capacitor, small symbol" (id 5) (at 0 0 0)
        (effects (font (size 1.27 1.27)) hide)
      )
      (property "ki_fp_filters" "C_*" (id 6) (at 0 0 0)
        (effects (font (size 1.27 1.27)) hide)
      )
      (symbol "C_Small_0_1"
        (polyline
          (pts
            (xy -1.524 -0.508)
            (xy 1.524 -0.508)
          )
          (stroke (width 0.3302) (type default) (color 0 0 0 0))
          (fill (type none))
        )
        (polyline
          (pts
            (xy -1.524 0.508)
            (xy 1.524 0.508)
          )
          (stroke (width 0.3048) (type default) (color 0 0 0 0))
          (fill (type none))
        )
      )
      (symbol "C_Small_1_1"
        (pin passive line (at 0 2.54 270) (length 2.032)
          (name "~" (effects (font (size 1.27 1.27))))
          (number "1" (effects (font (size 1.27 1.27))))
        )
        (pin passive line (at 0 -2.54 90) (length 2.032)
          (name "~" (effects (font (size 1.27 1.27))))
          (number "2" (effects (font (size 1.27 1.27))))
        )
      )
    )
    (symbol "MCU_Microchip_ATmega:ATmega32U4-A" (in_bom yes) (on_board yes)
      (property "Reference" "U" (id 0) (at -12.7 44.45 0)
        (effects (font (size 1.27 1.27)) (justify left bottom))
      )
      (property "Value" "ATmega32U4-A" (id 1) (at 2.54 -44.45 0)
        (effects (font (size 1.27 1.27)) (justify left top))
      )
      (property "Footprint" "Package_QFP:TQFP-44_10x10mm_P0.8mm" (id 2) (at 0 0 0)
        (effects (font (size 1.27 1.27) italic) hide)
      )
      (property "Datasheet" "http://ww1.microchip.com/downloads/en/DeviceDoc/Atmel-7766-8-bit-AVR-ATmega16U4-32U4_Datasheet.pdf" (id 3) (at 0 0 0)
        (effects (font (size 1.27 1.27)) hide)
      )
      (property "ki_keywords" "AVR 8bit Microcontroller MegaAVR USB" (id 4) (at 0 0 0)
        (effects (font (size 1.27 1.27)) hide)
      )
      (property "ki_description" "16MHz, 32kB Flash, 2.5kB SRAM, 1kB EEPROM, USB 2.0, TQFP-44" (id 5) (at 0 0 0)
        (effects (font (size 1.27 1.27)) hide)
      )
      (property "ki_fp_filters" "TQFP*10x10mm*P0.8mm*" (id 6) (at 0 0 0)
        (effects (font (size 1.27 1.27)) hide)
      )
      (symbol "ATmega32U4-A_0_1"
        (rectangle (start -12.7 -43.18) (end 12.7 43.18)
          (stroke (width 0.254) (type default) (color 0 0 0 0))
          (fill (type background))
        )
      )
      (symbol "ATmega32U4-A_1_1"
        (pin bidirectional line (at 15.24 -17.78 180) (length 2.54)
          (name "PE6" (effects (font (size 1.27 1.27))))
          (number "1" (effects (font (size 1.27 1.27))))
        )
        (pin bidirectional line (at 15.24 33.02 180) (length 2.54)
          (name "PB2" (effects (font (size 1.27 1.27))))
          (number "10" (effects (font (size 1.27 1.27))))
        )
        (pin bidirectional line (at 15.24 30.48 180) (length 2.54)
          (name "PB3" (effects (font (size 1.27 1.27))))
          (number "11" (effects (font (size 1.27 1.27))))
        )
        (pin bidirectional line (at 15.24 20.32 180) (length 2.54)
          (name "PB7" (effects (font (size 1.27 1.27))))
          (number "12" (effects (font (size 1.27 1.27))))
        )
        (pin input line (at -15.24 38.1 0) (length 2.54)
          (name "~{RESET}" (effects (font (size 1.27 1.27))))
          (number "13" (effects (font (size 1.27 1.27))))
        )
        (pin power_in line (at 0 45.72 270) (length 2.54)
          (name "VCC" (effects (font (size 1.27 1.27))))
          (number "14" (effects (font (size 1.27 1.27))))
        )
        (pin power_in line (at 0 -45.72 90) (length 2.54)
          (name "GND" (effects (font (size 1.27 1.27))))
          (number "15" (effects (font (size 1.27 1.27))))
        )
        (pin output line (at -15.24 27.94 0) (length 2.54)
          (name "XTAL2" (effects (font (size 1.27 1.27))))
          (number "16" (effects (font (size 1.27 1.27))))
        )
        (pin input line (at -15.24 33.02 0) (length 2.54)
          (name "XTAL1" (effects (font (size 1.27 1.27))))
          (number "17" (effects (font (size 1.27 1.27))))
        )
        (pin bidirectional line (at 15.24 7.62 180) (length 2.54)
          (name "PD0" (effects (font (size 1.27 1.27))))
          (number "18" (effects (font (size 1.27 1.27))))
        )
        (pin bidirectional line (at 15.24 5.08 180) (length 2.54)
          (name "PD1" (effects (font (size 1.27 1.27))))
          (number "19" (effects (font (size 1.27 1.27))))
        )
        (pin power_in line (at -2.54 45.72 270) (length 2.54)
          (name "UVCC" (effects (font (size 1.27 1.27))))
          (number "2" (effects (font (size 1.27 1.27))))
        )
        (pin bidirectional line (at 15.24 2.54 180) (length 2.54)
          (name "PD2" (effects (font (size 1.27 1.27))))
          (number "20" (effects (font (size 1.27 1.27))))
        )
        (pin bidirectional line (at 15.24 0 180) (length 2.54)
          (name "PD3" (effects (font (size 1.27 1.27))))
          (number "21" (effects (font (size 1.27 1.27))))
        )
        (pin bidirectional line (at 15.24 -5.08 180) (length 2.54)
          (name "PD5" (effects (font (size 1.27 1.27))))
          (number "22" (effects (font (size 1.27 1.27))))
        )
        (pin passive line (at 0 -45.72 90) (length 2.54) hide
          (name "GND" (effects (font (size 1.27 1.27))))
          (number "23" (effects (font (size 1.27 1.27))))
        )
        (pin power_in line (at 2.54 45.72 270) (length 2.54)
          (name "AVCC" (effects (font (size 1.27 1.27))))
          (number "24" (effects (font (size 1.27 1.27))))
        )
        (pin bidirectional line (at 15.24 -2.54 180) (length 2.54)
          (name "PD4" (effects (font (size 1.27 1.27))))
          (number "25" (effects (font (size 1.27 1.27))))
        )
        (pin bidirectional line (at 15.24 -7.62 180) (length 2.54)
          (name "PD6" (effects (font (size 1.27 1.27))))
          (number "26" (effects (font (size 1.27 1.27))))
        )
        (pin bidirectional line (at 15.24 -10.16 180) (length 2.54)
          (name "PD7" (effects (font (size 1.27 1.27))))
          (number "27" (effects (font (size 1.27 1.27))))
        )
        (pin bidirectional line (at 15.24 27.94 180) (length 2.54)
          (name "PB4" (effects (font (size 1.27 1.27))))
          (number "28" (effects (font (size 1.27 1.27))))
        )
        (pin bidirectional line (at 15.24 25.4 180) (length 2.54)
          (name "PB5" (effects (font (size 1.27 1.27))))
          (number "29" (effects (font (size 1.27 1.27))))
        )
        (pin bidirectional line (at -15.24 10.16 0) (length 2.54)
          (name "D-" (effects (font (size 1.27 1.27))))
          (number "3" (effects (font (size 1.27 1.27))))
        )
        (pin bidirectional line (at 15.24 22.86 180) (length 2.54)
          (name "PB6" (effects (font (size 1.27 1.27))))
          (number "30" (effects (font (size 1.27 1.27))))
        )
        (pin bidirectional line (at 15.24 15.24 180) (length 2.54)
          (name "PC6" (effects (font (size 1.27 1.27))))
          (number "31" (effects (font (size 1.27 1.27))))
        )
        (pin bidirectional line (at 15.24 12.7 180) (length 2.54)
          (name "PC7" (effects (font (size 1.27 1.27))))
          (number "32" (effects (font (size 1.27 1.27))))
        )
        (pin bidirectional line (at 15.24 -15.24 180) (length 2.54)
          (name "~{HWB}/PE2" (effects (font (size 1.27 1.27))))
          (number "33" (effects (font (size 1.27 1.27))))
        )
        (pin passive line (at 0 45.72 270) (length 2.54) hide
          (name "VCC" (effects (font (size 1.27 1.27))))
          (number "34" (effects (font (size 1.27 1.27))))
        )
        (pin passive line (at 0 -45.72 90) (length 2.54) hide
          (name "GND" (effects (font (size 1.27 1.27))))
          (number "35" (effects (font (size 1.27 1.27))))
        )
        (pin bidirectional line (at 15.24 -35.56 180) (length 2.54)
          (name "PF7" (effects (font (size 1.27 1.27))))
          (number "36" (effects (font (size 1.27 1.27))))
        )
        (pin bidirectional line (at 15.24 -33.02 180) (length 2.54)
          (name "PF6" (effects (font (size 1.27 1.27))))
          (number "37" (effects (font (size 1.27 1.27))))
        )
        (pin bidirectional line (at 15.24 -30.48 180) (length 2.54)
          (name "PF5" (effects (font (size 1.27 1.27))))
          (number "38" (effects (font (size 1.27 1.27))))
        )
        (pin bidirectional line (at 15.24 -27.94 180) (length 2.54)
          (name "PF4" (effects (font (size 1.27 1.27))))
          (number "39" (effects (font (size 1.27 1.27))))
        )
        (pin bidirectional line (at -15.24 12.7 0) (length 2.54)
          (name "D+" (effects (font (size 1.27 1.27))))
          (number "4" (effects (font (size 1.27 1.27))))
        )
        (pin bidirectional line (at 15.24 -25.4 180) (length 2.54)
          (name "PF1" (effects (font (size 1.27 1.27))))
          (number "40" (effects (font (size 1.27 1.27))))
        )
        (pin bidirectional line (at 15.24 -22.86 180) (length 2.54)
          (name "PF0" (effects (font (size 1.27 1.27))))
          (number "41" (effects (font (size 1.27 1.27))))
        )
        (pin passive line (at -15.24 22.86 0) (length 2.54)
          (name "AREF" (effects (font (size 1.27 1.27))))
          (number "42" (effects (font (size 1.27 1.27))))
        )
        (pin passive line (at 0 -45.72 90) (length 2.54) hide
          (name "GND" (effects (font (size 1.27 1.27))))
          (number "43" (effects (font (size 1.27 1.27))))
        )
        (pin passive line (at 2.54 45.72 270) (length 2.54) hide
          (name "AVCC" (effects (font (size 1.27 1.27))))
          (number "44" (effects (font (size 1.27 1.27))))
        )
        (pin passive line (at -2.54 -45.72 90) (length 2.54)
          (name "UGND" (effects (font (size 1.27 1.27))))
          (number "5" (effects (font (size 1.27 1.27))))
        )
        (pin passive line (at -15.24 5.08 0) (length 2.54)
          (name "UCAP" (effects (font (size 1.27 1.27))))
          (number "6" (effects (font (size 1.27 1.27))))
        )
        (pin input line (at -15.24 17.78 0) (length 2.54)
          (name "VBUS" (effects (font (size 1.27 1.27))))
          (number "7" (effects (font (size 1.27 1.27))))
        )
        (pin bidirectional line (at 15.24 38.1 180) (length 2.54)
          (name "PB0" (effects (font (size 1.27 1.27))))
          (number "8" (effects (font (size 1.27 1.27))))
        )
        (pin bidirectional line (at 15.24 35.56 180) (length 2.54)
          (name "PB1" (effects (font (size 1.27 1.27))))
          (number "9" (effects (font (size 1.27 1.27))))
        )
      )
    )
    (symbol "power:GND" (power) (pin_names (offset 0)) (in_bom yes) (on_board yes)
      (property "Reference" "#PWR" (id 0) (at 0 -6.35 0)
        (effects (font (size 1.27 1.27)) hide)
      )
      (property "Value" "GND" (id 1) (at 0 -3.81 0)
        (effects (font (size 1.27 1.27)))
      )
      (property "Footprint" "" (id 2) (at 0 0 0)
        (effects (font (size 1.27 1.27)) hide)
      )
      (property "Datasheet" "" (id 3) (at 0 0 0)
        (effects (font (size 1.27 1.27)) hide)
      )
      (property "ki_keywords" "power-flag" (id 4) (at 0 0 0)
        (effects (font (size 1.27 1.27)) hide)
      )
      (property "ki_description" "Power symbol creates a global label with name \"GND\" , ground" (id 5) (at 0 0 0)
        (effects (font (size 1.27 1.27)) hide)
      )
      (symbol "GND_0_1"
        (polyline
          (pts
            (xy 0 0)
            (xy 0 -1.27)
            (xy 1.27 -1.27)
            (xy 0 -2.54)
            (xy -1.27 -1.27)
            (xy 0 -1.27)
          )
          (stroke (width 0) (type default) (color 0 0 0 0))
          (fill (type none))
        )
      )
      (symbol "GND_1_1"
        (pin power_in line (at 0 0 270) (length 0) hide
          (name "GND" (effects (font (size 1.27 1.27))))
          (number "1" (effects (font (size 1.27 1.27))))
        )
      )
    )
    (symbol "power:VCC" (power) (pin_names (offset 0)) (in_bom yes) (on_board yes)
      (property "Reference" "+5V" (id 0) (at -2.54 5.08 0)
        (effects (font (size 1.27 1.27)) (justify left top))
      )
      (property "Value" "VCC" (id 1) (at 0 5.08 0)
        (effects (font (size 1.27 1.27)) hide)
      )
      (property "Footprint" "" (id 2) (at 0 0 0)
        (effects (font (size 1.27 1.27)) hide)
      )
      (property "Datasheet" "" (id 3) (at 0 0 0)
        (effects (font (size 1.27 1.27)) hide)
      )
      (property "ki_keywords" "power-flag" (id 4) (at 0 0 0)
        (effects (font (size 1.27 1.27)) hide)
      )
      (property "ki_description" "Power symbol creates a global label with name \"VCC\"" (id 5) (at 0 0 0)
        (effects (font (size 1.27 1.27)) hide)
      )
      (symbol "VCC_0_1"
        (polyline
          (pts
            (xy -0.762 1.27)
            (xy 0 2.54)
          )
          (stroke (width 0) (type default) (color 0 0 0 0))
          (fill (type none))
        )
        (polyline
          (pts
            (xy 0 0)
            (xy 0 2.54)
          )
          (stroke (width 0) (type default) (color 0 0 0 0))
          (fill (type none))
        )
        (polyline
          (pts
            (xy 0 2.54)
            (xy 0.762 1.27)
          )
          (stroke (width 0) (type default) (color 0 0 0 0))
          (fill (type none))
        )
      )
      (symbol "VCC_1_1"
        (pin power_in line (at 0 0 90) (length 0) hide
          (name "VCC" (effects (font (size 1.27 1.27))))
          (number "1" (effects (font (size 1.27 1.27))))
        )
      )
    )
  )

  (junction (at 90.17 53.34) (diameter 0) (color 0 0 0 0)
    (uuid 4d3eb030-3310-4dc0-9991-f7f777cd9002)
  )
  (junction (at 90.17 144.78) (diameter 0) (color 0 0 0 0)
    (uuid 59019e17-9d16-4b98-b722-1cd3564ce63c)
  )
  (junction (at 92.71 53.34) (diameter 0) (color 0 0 0 0)
    (uuid d47edde7-c87d-4968-a44f-8455a0e7c743)
  )

  (no_connect (at 83.82 72.39) (uuid a9033b29-6c60-4f51-82a0-9579c7089e34))
  (no_connect (at 77.47 76.2) (uuid a9033b29-6c60-4f51-82a0-9579c7089e34))
  (no_connect (at 107.95 91.44) (uuid a9033b29-6c60-4f51-82a0-9579c7089e34))

  (wire (pts (xy 90.17 144.78) (xy 80.01 144.78))
    (stroke (width 0) (type default) (color 0 0 0 0))
    (uuid 2a5fc756-cb42-4117-aead-0371321b0faa)
  )
  (wire (pts (xy 90.17 53.34) (xy 90.17 49.53))
    (stroke (width 0) (type default) (color 0 0 0 0))
    (uuid 571d8dc3-cb01-4bc4-b541-dcb242ae6e4c)
  )
  (wire (pts (xy 80.01 144.78) (xy 80.01 151.13))
    (stroke (width 0) (type default) (color 0 0 0 0))
    (uuid 59b29f2b-3b38-4674-bba7-30866c07d16d)
  )
  (wire (pts (xy 63.5 93.98) (xy 63.5 96.52))
    (stroke (width 0) (type default) (color 0 0 0 0))
    (uuid 7f622bf5-4cf5-4e26-9f50-d95300e35a5d)
  )
  (wire (pts (xy 92.71 53.34) (xy 90.17 53.34))
    (stroke (width 0) (type default) (color 0 0 0 0))
    (uuid 8a0e2d21-2397-4edc-8fba-a8e7b340eaec)
  )
  (wire (pts (xy 95.25 53.34) (xy 92.71 53.34))
    (stroke (width 0) (type default) (color 0 0 0 0))
    (uuid 9d600058-4902-4213-a188-06c37c789365)
  )
  (wire (pts (xy 69.85 81.28) (xy 77.47 81.28))
    (stroke (width 0) (type default) (color 0 0 0 0))
    (uuid acaf1ac6-1b35-41e3-82f3-3f630d6b4487)
  )
  (wire (pts (xy 92.71 144.78) (xy 90.17 144.78))
    (stroke (width 0) (type default) (color 0 0 0 0))
    (uuid ef3efea0-9d1a-4383-b1cc-54e0db3dc8d9)
  )
  (wire (pts (xy 77.47 93.98) (xy 63.5 93.98))
    (stroke (width 0) (type default) (color 0 0 0 0))
    (uuid f5b79406-8dc2-4cc3-b299-55ca793f86ed)
  )

  (global_label "XTAL1" (shape input) (at 77.47 66.04 180) (fields_autoplaced)
    (effects (font (size 1.27 1.27)) (justify right))
    (uuid 06fa4df0-1be9-45e9-94e4-6cf542c26602)
    (property "Intersheet References" "${INTERSHEET_REFS}" (id 0) (at 69.5536 65.9606 0)
      (effects (font (size 1.27 1.27)) (justify right) hide)
    )
  )
  (global_label "D+" (shape input) (at 77.47 86.36 180) (fields_autoplaced)
    (effects (font (size 1.27 1.27)) (justify right))
    (uuid 07e94bca-f361-40a8-b3ab-0daf89ea4573)
    (property "Intersheet References" "${INTERSHEET_REFS}" (id 0) (at 72.2145 86.2806 0)
      (effects (font (size 1.27 1.27)) (justify right) hide)
    )
  )
  (global_label "D-" (shape input) (at 77.47 88.9 180) (fields_autoplaced)
    (effects (font (size 1.27 1.27)) (justify right))
    (uuid 14eb58ef-2538-4921-a8fa-3ca58a72a4e5)
    (property "Intersheet References" "${INTERSHEET_REFS}" (id 0) (at 72.2145 88.8206 0)
      (effects (font (size 1.27 1.27)) (justify right) hide)
    )
  )
  (global_label "XTAL2" (shape input) (at 77.47 71.12 180) (fields_autoplaced)
    (effects (font (size 1.27 1.27)) (justify right))
    (uuid 1ea2af2e-2d79-4cc4-b3ae-37f5edd9b602)
    (property "Intersheet References" "${INTERSHEET_REFS}" (id 0) (at 69.5536 71.0406 0)
      (effects (font (size 1.27 1.27)) (justify right) hide)
    )
  )
  (global_label "RESET" (shape input) (at 77.47 60.96 180) (fields_autoplaced)
    (effects (font (size 1.27 1.27)) (justify right))
    (uuid 308ee425-3c4f-451f-8b0c-21a94f8477f4)
    (property "Intersheet References" "${INTERSHEET_REFS}" (id 0) (at 69.3117 61.0394 0)
      (effects (font (size 1.27 1.27)) (justify right) hide)
    )
  )

  (symbol (lib_id "power:VCC") (at 90.17 49.53 0) (unit 1)
    (in_bom yes) (on_board yes) (fields_autoplaced)
    (uuid 3ab34814-9f78-400e-af31-4b0833d7e72a)
    (property "Reference" "+5V" (id 0) (at 87.63 44.45 0)
      (effects (font (size 1.27 1.27)) (justify left top))
    )
    (property "Value" "VCC" (id 1) (at 90.17 44.45 0)
      (effects (font (size 1.27 1.27)) hide)
    )
    (property "Footprint" "" (id 2) (at 90.17 49.53 0)
      (effects (font (size 1.27 1.27)) hide)
    )
    (property "Datasheet" "" (id 3) (at 90.17 49.53 0)
      (effects (font (size 1.27 1.27)) hide)
    )
    (pin "1" (uuid b88cc6bb-96da-4349-8dd5-59dcc2de9c4f))
  )

  (symbol (lib_id "power:GND") (at 63.5 101.6 0) (unit 1)
    (in_bom yes) (on_board yes) (fields_autoplaced)
    (uuid 5d21cfa8-8749-4cc8-aad8-0f05d95d4acf)
    (property "Reference" "#PWR?" (id 0) (at 63.5 107.95 0)
      (effects (font (size 1.27 1.27)) hide)
    )
    (property "Value" "GND" (id 1) (at 63.5 106.68 0))
    (property "Footprint" "" (id 2) (at 63.5 101.6 0)
      (effects (font (size 1.27 1.27)) hide)
    )
    (property "Datasheet" "" (id 3) (at 63.5 101.6 0)
      (effects (font (size 1.27 1.27)) hide)
    )
    (pin "1" (uuid 4c54a46a-e20d-4997-ae41-281a7a99d703))
  )

  (symbol (lib_id "Device:C_Small") (at 63.5 99.06 0) (unit 1)
    (in_bom yes) (on_board yes) (fields_autoplaced)
    (uuid cbe8940a-1858-47a0-9854-1aa32f56c1ce)
    (property "Reference" "C?" (id 0) (at 66.04 97.7962 0)
      (effects (font (size 1.27 1.27)) (justify left))
    )
    (property "Value" "1u" (id 1) (at 66.04 100.3362 0)
      (effects (font (size 1.27 1.27)) (justify left))
    )
    (property "Footprint" "" (id 2) (at 63.5 99.06 0)
      (effects (font (size 1.27 1.27)) hide)
    )
    (property "Datasheet" "~" (id 3) (at 63.5 99.06 0)
      (effects (font (size 1.27 1.27)) hide)
    )
    (pin "1" (uuid 59d10731-4745-4113-8cd0-7858efe3056b))
    (pin "2" (uuid 62553707-50d0-4fef-825a-2a385bb4fc25))
  )

  (symbol (lib_id "power:VCC") (at 69.85 81.28 0) (unit 1)
    (in_bom yes) (on_board yes) (fields_autoplaced)
    (uuid cd0188d5-0eb8-4e72-88e5-b46154bd2b66)
    (property "Reference" "+5V" (id 0) (at 67.31 76.2 0)
      (effects (font (size 1.27 1.27)) (justify left top))
    )
    (property "Value" "VCC" (id 1) (at 69.85 76.2 0)
      (effects (font (size 1.27 1.27)) hide)
    )
    (property "Footprint" "" (id 2) (at 69.85 81.28 0)
      (effects (font (size 1.27 1.27)) hide)
    )
    (property "Datasheet" "" (id 3) (at 69.85 81.28 0)
      (effects (font (size 1.27 1.27)) hide)
    )
    (pin "1" (uuid f8b4e001-ed02-431e-9585-782ed6b26c59))
  )

  (symbol (lib_id "power:GND") (at 80.01 151.13 0) (unit 1)
    (in_bom yes) (on_board yes) (fields_autoplaced)
    (uuid e58c5098-d255-4967-bb7e-dee20df62cc5)
    (property "Reference" "#PWR?" (id 0) (at 80.01 157.48 0)
      (effects (font (size 1.27 1.27)) hide)
    )
    (property "Value" "GND" (id 1) (at 80.01 156.21 0))
    (property "Footprint" "" (id 2) (at 80.01 151.13 0)
      (effects (font (size 1.27 1.27)) hide)
    )
    (property "Datasheet" "" (id 3) (at 80.01 151.13 0)
      (effects (font (size 1.27 1.27)) hide)
    )
    (pin "1" (uuid 29217995-929d-46c1-a45b-4f8db5c0c310))
  )

  (symbol (lib_id "MCU_Microchip_ATmega:ATmega32U4-A") (at 92.71 99.06 0) (unit 1)
    (in_bom yes) (on_board yes) (fields_autoplaced)
    (uuid f49acc4a-3d0e-4180-abbe-fa9bb83dc900)
    (property "Reference" "U1" (id 0) (at 94.7294 144.78 0)
      (effects (font (size 1.27 1.27)) (justify left))
    )
    (property "Value" "ATmega32U4-A" (id 1) (at 94.7294 147.32 0)
      (effects (font (size 1.27 1.27)) (justify left))
    )
    (property "Footprint" "Package_QFP:TQFP-44_10x10mm_P0.8mm" (id 2) (at 92.71 99.06 0)
      (effects (font (size 1.27 1.27) italic) hide)
    )
    (property "Datasheet" "http://ww1.microchip.com/downloads/en/DeviceDoc/Atmel-7766-8-bit-AVR-ATmega16U4-32U4_Datasheet.pdf" (id 3) (at 92.71 99.06 0)
      (effects (font (size 1.27 1.27)) hide)
    )
    (pin "1" (uuid 5721c361-8501-4e92-a31b-e4fb17bd2291))
    (pin "10" (uuid f90f566b-da46-4807-98d4-2421aa6c299b))
    (pin "11" (uuid abccb385-08be-4638-a3d3-ccdcb9e232ef))
    (pin "12" (uuid 66ccdd26-5ca9-4b07-9a56-c85323767cc8))
    (pin "13" (uuid 053400e1-4a7c-4d53-a355-194ade754ebf))
    (pin "14" (uuid 6c22c9c8-1014-4758-9010-7589bef66d40))
    (pin "15" (uuid 2555cf4e-5707-4b68-a647-11b60835db54))
    (pin "16" (uuid 619bc5b1-9358-4cac-abe7-5a88d1272d70))
    (pin "17" (uuid 2cbf130b-8146-41fa-846b-50df0c7932ed))
    (pin "18" (uuid cecafb9e-bd6c-432a-b4cd-5be748701e35))
    (pin "19" (uuid cd955763-ae23-49cb-a29a-a9f72f065f67))
    (pin "2" (uuid 17f07cfa-6574-4749-b7b7-20b149cd7710))
    (pin "20" (uuid 157d9f4a-2137-4eee-aed4-6cc43f851522))
    (pin "21" (uuid c62d1bfb-148d-4972-af87-06739ca743a3))
    (pin "22" (uuid 36a155c5-b5f3-42e3-95fe-1ea0aeeed7f4))
    (pin "23" (uuid 9558136d-9e65-4a8c-99e5-a660c793863a))
    (pin "24" (uuid f58fe618-1acf-4810-8946-9f2f1fb1e2a1))
    (pin "25" (uuid defb84ae-a0bb-4549-9216-2bf0e0007f01))
    (pin "26" (uuid 2183d8fa-86d7-42ca-bdc0-f521ffdaf337))
    (pin "27" (uuid 8308719c-2b07-4f92-bfaf-daab1cd22541))
    (pin "28" (uuid 26ae6780-5567-4ef0-847a-ddd3985a8909))
    (pin "29" (uuid 7e196e0e-48d5-4604-b43e-217b892e783c))
    (pin "3" (uuid 73aa9a46-f51a-4ae7-81e7-eee1a30364f5))
    (pin "30" (uuid c8a05172-a1ff-4fa9-9069-8276e5ccd962))
    (pin "31" (uuid c3f04deb-029f-4720-83eb-ba893b39f584))
    (pin "32" (uuid 41f5fc0f-a9e3-43a6-b4d3-bc0859354d80))
    (pin "33" (uuid 04e226ae-6a86-48aa-beb1-7368f0a2ae9f))
    (pin "34" (uuid 1d53e88d-357d-4bde-a5df-01d6969bbd43))
    (pin "35" (uuid 0e3c17aa-daa0-45ab-8a18-1f4d178e6b4b))
    (pin "36" (uuid 2b488ade-da7b-4948-afc8-f2acc4d25b21))
    (pin "37" (uuid c6ee1dff-726f-486c-ba71-e6fc931f52d2))
    (pin "38" (uuid 5c9f3428-1e1f-43aa-ba78-4fe8470da743))
    (pin "39" (uuid b81634b1-8c4e-45b7-bc54-05b00107f0b3))
    (pin "4" (uuid 7ff3ad99-65db-44db-bb4b-7ac2249c1826))
    (pin "40" (uuid 19bd2969-2b68-4cda-a990-c385d1e7908f))
    (pin "41" (uuid 28a5d4f7-be9e-43fd-8e28-995edac49d9f))
    (pin "42" (uuid 8485e867-54ba-4d6c-8633-f61343a57122))
    (pin "43" (uuid 9fd45b71-7edc-4a5e-a921-262ba3092d54))
    (pin "44" (uuid 01f301e8-9ca5-4cff-b56c-75f87772f0df))
    (pin "5" (uuid 6223f104-75df-4bf5-80f4-d050c5a853ff))
    (pin "6" (uuid f37720a6-883a-4fa5-be18-5774b3853deb))
    (pin "7" (uuid 2499aaac-ec87-499c-90d0-1a9466d77fc5))
    (pin "8" (uuid bdb6421a-bc4c-4b60-bd14-efab74b380b1))
    (pin "9" (uuid cf589ae9-228d-4a56-a9aa-93b32b01a168))
  )

  (sheet_instances
    (path "/" (page "1"))
  )

  (symbol_instances
    (path "/5d21cfa8-8749-4cc8-aad8-0f05d95d4acf"
      (reference "#PWR?") (unit 1) (value "GND") (footprint "")
    )
    (path "/e58c5098-d255-4967-bb7e-dee20df62cc5"
      (reference "#PWR?") (unit 1) (value "GND") (footprint "")
    )
    (path "/3ab34814-9f78-400e-af31-4b0833d7e72a"
      (reference "+5V") (unit 1) (value "VCC") (footprint "")
    )
    (path "/cd0188d5-0eb8-4e72-88e5-b46154bd2b66"
      (reference "+5V") (unit 1) (value "VCC") (footprint "")
    )
    (path "/cbe8940a-1858-47a0-9854-1aa32f56c1ce"
      (reference "C?") (unit 1) (value "1u") (footprint "")
    )
    (path "/f49acc4a-3d0e-4180-abbe-fa9bb83dc900"
      (reference "U1") (unit 1) (value "ATmega32U4-A") (footprint "Package_QFP:TQFP-44_10x10mm_P0.8mm")
    )
  )
)
